{"failedCount":0,"prefixedPath":"src\/test\/resources\/features\/swapi_get.feature","packageQualifiedName":"src.test.resources.features.swapi_get","loopIndex":-1,"relativePath":"src\/test\/resources\/features\/swapi_get.feature","scenarioResults":[{"sectionIndex":0,"stepResults":[{"result":{"nanos":1121200,"millis":1.1212,"status":"passed"},"step":{"background":true,"line":4,"prefix":"*","index":0,"text":"url urlBase"}},{"result":{"nanos":489900,"millis":0.4899,"status":"passed"},"step":{"line":7,"prefix":"Given","index":0,"text":"path '\/people\/'"}},{"result":{"nanos":3080804000,"millis":3080.804,"status":"passed"},"step":{"line":8,"prefix":"When","index":1,"text":"method get"},"stepLog":"22:27:37.795 request:\n1 > GET https:\/\/swapi.dev\/api\/people\n1 > Host: swapi.dev\n1 > Connection: Keep-Alive\n1 > User-Agent: Apache-HttpClient\/4.5.13 (Java\/1.8.0_202)\n1 > Accept-Encoding: gzip,deflate\n\n\n22:27:38.991 response time in milliseconds: 1196\n1 < 200\n1 < Server: nginx\/1.16.1\n1 < Date: Fri, 31 May 2024 03:27:38 GMT\n1 < Content-Type: application\/json\n1 < Transfer-Encoding: chunked\n1 < Connection: keep-alive\n1 < Vary: Accept, Cookie\n1 < X-Frame-Options: SAMEORIGIN\n1 < ETag: \"b493126da505af6fec015ec116fec193\"\n1 < Allow: GET, HEAD, OPTIONS\n1 < Strict-Transport-Security: max-age=15768000\n{\"count\":82,\"next\":\"https:\/\/swapi.dev\/api\/people\/?page=2\",\"previous\":null,\"results\":[{\"name\":\"Luke Skywalker\",\"height\":\"172\",\"mass\":\"77\",\"hair_color\":\"blond\",\"skin_color\":\"fair\",\"eye_color\":\"blue\",\"birth_year\":\"19BBY\",\"gender\":\"male\",\"homeworld\":\"https:\/\/swapi.dev\/api\/planets\/1\/\",\"films\":[\"https:\/\/swapi.dev\/api\/films\/1\/\",\"https:\/\/swapi.dev\/api\/films\/2\/\",\"https:\/\/swapi.dev\/api\/films\/3\/\",\"https:\/\/swapi.dev\/api\/films\/6\/\"],\"species\":[],\"vehicles\":[\"https:\/\/swapi.dev\/api\/vehicles\/14\/\",\"https:\/\/swapi.dev\/api\/vehicles\/30\/\"],\"starships\":[\"https:\/\/swapi.dev\/api\/starships\/12\/\",\"https:\/\/swapi.dev\/api\/starships\/22\/\"],\"created\":\"2014-12-09T13:50:51.644000Z\",\"edited\":\"2014-12-20T21:17:56.891000Z\",\"url\":\"https:\/\/swapi.dev\/api\/people\/1\/\"},{\"name\":\"C-3PO\",\"height\":\"167\",\"mass\":\"75\",\"hair_color\":\"n\/a\",\"skin_color\":\"gold\",\"eye_color\":\"yellow\",\"birth_year\":\"112BBY\",\"gender\":\"n\/a\",\"homeworld\":\"https:\/\/swapi.dev\/api\/planets\/1\/\",\"films\":[\"https:\/\/swapi.dev\/api\/films\/1\/\",\"https:\/\/swapi.dev\/api\/films\/2\/\",\"https:\/\/swapi.dev\/api\/films\/3\/\",\"https:\/\/swapi.dev\/api\/films\/4\/\",\"https:\/\/swapi.dev\/api\/films\/5\/\",\"https:\/\/swapi.dev\/api\/films\/6\/\"],\"species\":[\"https:\/\/swapi.dev\/api\/species\/2\/\"],\"vehicles\":[],\"starships\":[],\"created\":\"2014-12-10T15:10:51.357000Z\",\"edited\":\"2014-12-20T21:17:50.309000Z\",\"url\":\"https:\/\/swapi.dev\/api\/people\/2\/\"},{\"name\":\"R2-D2\",\"height\":\"96\",\"mass\":\"32\",\"hair_color\":\"n\/a\",\"skin_color\":\"white, blue\",\"eye_color\":\"red\",\"birth_year\":\"33BBY\",\"gender\":\"n\/a\",\"homeworld\":\"https:\/\/swapi.dev\/api\/planets\/8\/\",\"films\":[\"https:\/\/swapi.dev\/api\/films\/1\/\",\"https:\/\/swapi.dev\/api\/films\/2\/\",\"https:\/\/swapi.dev\/api\/films\/3\/\",\"https:\/\/swapi.dev\/api\/films\/4\/\",\"https:\/\/swapi.dev\/api\/films\/5\/\",\"https:\/\/swapi.dev\/api\/films\/6\/\"],\"species\":[\"https:\/\/swapi.dev\/api\/species\/2\/\"],\"vehicles\":[],\"starships\":[],\"created\":\"2014-12-10T15:11:50.376000Z\",\"edited\":\"2014-12-20T21:17:50.311000Z\",\"url\":\"https:\/\/swapi.dev\/api\/people\/3\/\"},{\"name\":\"Darth Vader\",\"height\":\"202\",\"mass\":\"136\",\"hair_color\":\"none\",\"skin_color\":\"white\",\"eye_color\":\"yellow\",\"birth_year\":\"41.9BBY\",\"gender\":\"male\",\"homeworld\":\"https:\/\/swapi.dev\/api\/planets\/1\/\",\"films\":[\"https:\/\/swapi.dev\/api\/films\/1\/\",\"https:\/\/swapi.dev\/api\/films\/2\/\",\"https:\/\/swapi.dev\/api\/films\/3\/\",\"https:\/\/swapi.dev\/api\/films\/6\/\"],\"species\":[],\"vehicles\":[],\"starships\":[\"https:\/\/swapi.dev\/api\/starships\/13\/\"],\"created\":\"2014-12-10T15:18:20.704000Z\",\"edited\":\"2014-12-20T21:17:50.313000Z\",\"url\":\"https:\/\/swapi.dev\/api\/people\/4\/\"},{\"name\":\"Leia Organa\",\"height\":\"150\",\"mass\":\"49\",\"hair_color\":\"brown\",\"skin_color\":\"light\",\"eye_color\":\"brown\",\"birth_year\":\"19BBY\",\"gender\":\"female\",\"homeworld\":\"https:\/\/swapi.dev\/api\/planets\/2\/\",\"films\":[\"https:\/\/swapi.dev\/api\/films\/1\/\",\"https:\/\/swapi.dev\/api\/films\/2\/\",\"https:\/\/swapi.dev\/api\/films\/3\/\",\"https:\/\/swapi.dev\/api\/films\/6\/\"],\"species\":[],\"vehicles\":[\"https:\/\/swapi.dev\/api\/vehicles\/30\/\"],\"starships\":[],\"created\":\"2014-12-10T15:20:09.791000Z\",\"edited\":\"2014-12-20T21:17:50.315000Z\",\"url\":\"https:\/\/swapi.dev\/api\/people\/5\/\"},{\"name\":\"Owen Lars\",\"height\":\"178\",\"mass\":\"120\",\"hair_color\":\"brown, grey\",\"skin_color\":\"light\",\"eye_color\":\"blue\",\"birth_year\":\"52BBY\",\"gender\":\"male\",\"homeworld\":\"https:\/\/swapi.dev\/api\/planets\/1\/\",\"films\":[\"https:\/\/swapi.dev\/api\/films\/1\/\",\"https:\/\/swapi.dev\/api\/films\/5\/\",\"https:\/\/swapi.dev\/api\/films\/6\/\"],\"species\":[],\"vehicles\":[],\"starships\":[],\"created\":\"2014-12-10T15:52:14.024000Z\",\"edited\":\"2014-12-20T21:17:50.317000Z\",\"url\":\"https:\/\/swapi.dev\/api\/people\/6\/\"},{\"name\":\"Beru Whitesun lars\",\"height\":\"165\",\"mass\":\"75\",\"hair_color\":\"brown\",\"skin_color\":\"light\",\"eye_color\":\"blue\",\"birth_year\":\"47BBY\",\"gender\":\"female\",\"homeworld\":\"https:\/\/swapi.dev\/api\/planets\/1\/\",\"films\":[\"https:\/\/swapi.dev\/api\/films\/1\/\",\"https:\/\/swapi.dev\/api\/films\/5\/\",\"https:\/\/swapi.dev\/api\/films\/6\/\"],\"species\":[],\"vehicles\":[],\"starships\":[],\"created\":\"2014-12-10T15:53:41.121000Z\",\"edited\":\"2014-12-20T21:17:50.319000Z\",\"url\":\"https:\/\/swapi.dev\/api\/people\/7\/\"},{\"name\":\"R5-D4\",\"height\":\"97\",\"mass\":\"32\",\"hair_color\":\"n\/a\",\"skin_color\":\"white, red\",\"eye_color\":\"red\",\"birth_year\":\"unknown\",\"gender\":\"n\/a\",\"homeworld\":\"https:\/\/swapi.dev\/api\/planets\/1\/\",\"films\":[\"https:\/\/swapi.dev\/api\/films\/1\/\"],\"species\":[\"https:\/\/swapi.dev\/api\/species\/2\/\"],\"vehicles\":[],\"starships\":[],\"created\":\"2014-12-10T15:57:50.959000Z\",\"edited\":\"2014-12-20T21:17:50.321000Z\",\"url\":\"https:\/\/swapi.dev\/api\/people\/8\/\"},{\"name\":\"Biggs Darklighter\",\"height\":\"183\",\"mass\":\"84\",\"hair_color\":\"black\",\"skin_color\":\"light\",\"eye_color\":\"brown\",\"birth_year\":\"24BBY\",\"gender\":\"male\",\"homeworld\":\"https:\/\/swapi.dev\/api\/planets\/1\/\",\"films\":[\"https:\/\/swapi.dev\/api\/films\/1\/\"],\"species\":[],\"vehicles\":[],\"starships\":[\"https:\/\/swapi.dev\/api\/starships\/12\/\"],\"created\":\"2014-12-10T15:59:50.509000Z\",\"edited\":\"2014-12-20T21:17:50.323000Z\",\"url\":\"https:\/\/swapi.dev\/api\/people\/9\/\"},{\"name\":\"Obi-Wan Kenobi\",\"height\":\"182\",\"mass\":\"77\",\"hair_color\":\"auburn, white\",\"skin_color\":\"fair\",\"eye_color\":\"blue-gray\",\"birth_year\":\"57BBY\",\"gender\":\"male\",\"homeworld\":\"https:\/\/swapi.dev\/api\/planets\/20\/\",\"films\":[\"https:\/\/swapi.dev\/api\/films\/1\/\",\"https:\/\/swapi.dev\/api\/films\/2\/\",\"https:\/\/swapi.dev\/api\/films\/3\/\",\"https:\/\/swapi.dev\/api\/films\/4\/\",\"https:\/\/swapi.dev\/api\/films\/5\/\",\"https:\/\/swapi.dev\/api\/films\/6\/\"],\"species\":[],\"vehicles\":[\"https:\/\/swapi.dev\/api\/vehicles\/38\/\"],\"starships\":[\"https:\/\/swapi.dev\/api\/starships\/48\/\",\"https:\/\/swapi.dev\/api\/starships\/59\/\",\"https:\/\/swapi.dev\/api\/starships\/64\/\",\"https:\/\/swapi.dev\/api\/starships\/65\/\",\"https:\/\/swapi.dev\/api\/starships\/74\/\"],\"created\":\"2014-12-10T16:16:29.192000Z\",\"edited\":\"2014-12-20T21:17:50.325000Z\",\"url\":\"https:\/\/swapi.dev\/api\/people\/10\/\"}]}\n\n"},{"result":{"nanos":12200,"millis":0.0122,"status":"passed"},"step":{"line":9,"prefix":"Then","index":2,"text":"status 200"}},{"result":{"nanos":38376700,"millis":38.3767,"status":"passed"},"step":{"line":10,"prefix":"And","index":3,"text":"match $.count == 82"}}],"executorName":"main","line":6,"name":"Make a query to resources and validate the response","description":"","durationMillis":3120.804,"startTime":1717126055629,"failed":false,"refId":"[1:6]","endTime":1717126059078,"exampleIndex":-1},{"sectionIndex":1,"stepResults":[{"result":{"nanos":426200,"millis":0.4262,"status":"passed"},"step":{"background":true,"line":4,"prefix":"*","index":0,"text":"url urlBase"}},{"result":{"nanos":1911100,"millis":1.9111,"status":"passed"},"step":{"line":13,"prefix":"Given","index":0,"text":"path '\/people\/1'"}},{"result":{"nanos":904540200,"millis":904.5402,"status":"passed"},"step":{"line":14,"prefix":"When","index":1,"text":"method get"},"stepLog":"22:27:39.128 request:\n1 > GET https:\/\/swapi.dev\/api\/people\/1\n1 > Host: swapi.dev\n1 > Connection: Keep-Alive\n1 > User-Agent: Apache-HttpClient\/4.5.13 (Java\/1.8.0_202)\n1 > Accept-Encoding: gzip,deflate\n\n\n22:27:40.028 response time in milliseconds: 900\n1 < 200\n1 < Server: nginx\/1.16.1\n1 < Date: Fri, 31 May 2024 03:27:39 GMT\n1 < Content-Type: application\/json\n1 < Transfer-Encoding: chunked\n1 < Connection: keep-alive\n1 < Vary: Accept, Cookie\n1 < X-Frame-Options: SAMEORIGIN\n1 < ETag: \"ee398610435c328f4d0a4e1b0d2f7bbc\"\n1 < Allow: GET, HEAD, OPTIONS\n1 < Strict-Transport-Security: max-age=15768000\n{\"name\":\"Luke Skywalker\",\"height\":\"172\",\"mass\":\"77\",\"hair_color\":\"blond\",\"skin_color\":\"fair\",\"eye_color\":\"blue\",\"birth_year\":\"19BBY\",\"gender\":\"male\",\"homeworld\":\"https:\/\/swapi.dev\/api\/planets\/1\/\",\"films\":[\"https:\/\/swapi.dev\/api\/films\/1\/\",\"https:\/\/swapi.dev\/api\/films\/2\/\",\"https:\/\/swapi.dev\/api\/films\/3\/\",\"https:\/\/swapi.dev\/api\/films\/6\/\"],\"species\":[],\"vehicles\":[\"https:\/\/swapi.dev\/api\/vehicles\/14\/\",\"https:\/\/swapi.dev\/api\/vehicles\/30\/\"],\"starships\":[\"https:\/\/swapi.dev\/api\/starships\/12\/\",\"https:\/\/swapi.dev\/api\/starships\/22\/\"],\"created\":\"2014-12-09T13:50:51.644000Z\",\"edited\":\"2014-12-20T21:17:56.891000Z\",\"url\":\"https:\/\/swapi.dev\/api\/people\/1\/\"}\n\n"},{"result":{"nanos":11900,"millis":0.0119,"status":"passed"},"step":{"line":15,"prefix":"Then","index":2,"text":"status 200"}}],"line":19,"description":"","durationMillis":906.8894,"failed":false,"executorName":"main","name":"Make a query to validate the response to all","startTime":1717126059112,"refId":"[2.1:19]","endTime":1717126060028,"exampleData":{"id":"1"},"exampleIndex":0},{"sectionIndex":1,"stepResults":[{"result":{"nanos":163400,"millis":0.1634,"status":"passed"},"step":{"background":true,"line":4,"prefix":"*","index":0,"text":"url urlBase"}},{"result":{"nanos":463600,"millis":0.4636,"status":"passed"},"step":{"line":13,"prefix":"Given","index":0,"text":"path '\/people\/5'"}},{"result":{"nanos":782198200,"millis":782.1982,"status":"passed"},"step":{"line":14,"prefix":"When","index":1,"text":"method get"},"stepLog":"22:27:40.040 request:\n1 > GET https:\/\/swapi.dev\/api\/people\/5\n1 > Host: swapi.dev\n1 > Connection: Keep-Alive\n1 > User-Agent: Apache-HttpClient\/4.5.13 (Java\/1.8.0_202)\n1 > Accept-Encoding: gzip,deflate\n\n\n22:27:40.807 response time in milliseconds: 767\n1 < 200\n1 < Server: nginx\/1.16.1\n1 < Date: Fri, 31 May 2024 03:27:40 GMT\n1 < Content-Type: application\/json\n1 < Transfer-Encoding: chunked\n1 < Connection: keep-alive\n1 < Vary: Accept, Cookie\n1 < X-Frame-Options: SAMEORIGIN\n1 < ETag: \"e26d79104f61b8e3e61eec7fe30ddade\"\n1 < Allow: GET, HEAD, OPTIONS\n1 < Strict-Transport-Security: max-age=15768000\n{\"name\":\"Leia Organa\",\"height\":\"150\",\"mass\":\"49\",\"hair_color\":\"brown\",\"skin_color\":\"light\",\"eye_color\":\"brown\",\"birth_year\":\"19BBY\",\"gender\":\"female\",\"homeworld\":\"https:\/\/swapi.dev\/api\/planets\/2\/\",\"films\":[\"https:\/\/swapi.dev\/api\/films\/1\/\",\"https:\/\/swapi.dev\/api\/films\/2\/\",\"https:\/\/swapi.dev\/api\/films\/3\/\",\"https:\/\/swapi.dev\/api\/films\/6\/\"],\"species\":[],\"vehicles\":[\"https:\/\/swapi.dev\/api\/vehicles\/30\/\"],\"starships\":[],\"created\":\"2014-12-10T15:20:09.791000Z\",\"edited\":\"2014-12-20T21:17:50.315000Z\",\"url\":\"https:\/\/swapi.dev\/api\/people\/5\/\"}\n\n"},{"result":{"nanos":16800,"millis":0.0168,"status":"passed"},"step":{"line":15,"prefix":"Then","index":2,"text":"status 200"}}],"line":20,"description":"","durationMillis":782.842,"failed":false,"executorName":"main","name":"Make a query to validate the response to all","startTime":1717126060028,"refId":"[2.2:20]","endTime":1717126060823,"exampleData":{"id":"5"},"exampleIndex":1},{"sectionIndex":1,"stepResults":[{"result":{"nanos":139200,"millis":0.1392,"status":"passed"},"step":{"background":true,"line":4,"prefix":"*","index":0,"text":"url urlBase"}},{"result":{"nanos":425800,"millis":0.4258,"status":"passed"},"step":{"line":13,"prefix":"Given","index":0,"text":"path '\/people\/4'"}},{"result":{"nanos":804862800,"millis":804.8628,"status":"passed"},"step":{"line":14,"prefix":"When","index":1,"text":"method get"},"stepLog":"22:27:40.829 request:\n1 > GET https:\/\/swapi.dev\/api\/people\/4\n1 > Host: swapi.dev\n1 > Connection: Keep-Alive\n1 > User-Agent: Apache-HttpClient\/4.5.13 (Java\/1.8.0_202)\n1 > Accept-Encoding: gzip,deflate\n\n\n22:27:41.631 response time in milliseconds: 802\n1 < 200\n1 < Server: nginx\/1.16.1\n1 < Date: Fri, 31 May 2024 03:27:41 GMT\n1 < Content-Type: application\/json\n1 < Transfer-Encoding: chunked\n1 < Connection: keep-alive\n1 < Vary: Accept, Cookie\n1 < X-Frame-Options: SAMEORIGIN\n1 < ETag: \"3bd6683da4bf9ac731386ed3fa8ce8fc\"\n1 < Allow: GET, HEAD, OPTIONS\n1 < Strict-Transport-Security: max-age=15768000\n{\"name\":\"Darth Vader\",\"height\":\"202\",\"mass\":\"136\",\"hair_color\":\"none\",\"skin_color\":\"white\",\"eye_color\":\"yellow\",\"birth_year\":\"41.9BBY\",\"gender\":\"male\",\"homeworld\":\"https:\/\/swapi.dev\/api\/planets\/1\/\",\"films\":[\"https:\/\/swapi.dev\/api\/films\/1\/\",\"https:\/\/swapi.dev\/api\/films\/2\/\",\"https:\/\/swapi.dev\/api\/films\/3\/\",\"https:\/\/swapi.dev\/api\/films\/6\/\"],\"species\":[],\"vehicles\":[],\"starships\":[\"https:\/\/swapi.dev\/api\/starships\/13\/\"],\"created\":\"2014-12-10T15:18:20.704000Z\",\"edited\":\"2014-12-20T21:17:50.313000Z\",\"url\":\"https:\/\/swapi.dev\/api\/people\/4\/\"}\n\n"},{"result":{"nanos":22500,"millis":0.0225,"status":"passed"},"step":{"line":15,"prefix":"Then","index":2,"text":"status 200"}}],"line":21,"description":"","durationMillis":805.4503,"failed":false,"executorName":"main","name":"Make a query to validate the response to all","startTime":1717126060829,"refId":"[2.3:21]","endTime":1717126061631,"exampleData":{"id":"4"},"exampleIndex":2},{"sectionIndex":1,"stepResults":[{"result":{"nanos":501200,"millis":0.5012,"status":"passed"},"step":{"background":true,"line":4,"prefix":"*","index":0,"text":"url urlBase"}},{"result":{"nanos":754800,"millis":0.7548,"status":"passed"},"step":{"line":13,"prefix":"Given","index":0,"text":"path '\/people\/6'"}},{"result":{"nanos":806321300,"millis":806.3213,"status":"passed"},"step":{"line":14,"prefix":"When","index":1,"text":"method get"},"stepLog":"22:27:41.657 request:\n1 > GET https:\/\/swapi.dev\/api\/people\/6\n1 > Host: swapi.dev\n1 > Connection: Keep-Alive\n1 > User-Agent: Apache-HttpClient\/4.5.13 (Java\/1.8.0_202)\n1 > Accept-Encoding: gzip,deflate\n\n\n22:27:42.458 response time in milliseconds: 801\n1 < 200\n1 < Server: nginx\/1.16.1\n1 < Date: Fri, 31 May 2024 03:27:42 GMT\n1 < Content-Type: application\/json\n1 < Transfer-Encoding: chunked\n1 < Connection: keep-alive\n1 < Vary: Accept, Cookie\n1 < X-Frame-Options: SAMEORIGIN\n1 < ETag: \"2e6a32a4abd77976919885e2c7d3e78f\"\n1 < Allow: GET, HEAD, OPTIONS\n1 < Strict-Transport-Security: max-age=15768000\n{\"name\":\"Owen Lars\",\"height\":\"178\",\"mass\":\"120\",\"hair_color\":\"brown, grey\",\"skin_color\":\"light\",\"eye_color\":\"blue\",\"birth_year\":\"52BBY\",\"gender\":\"male\",\"homeworld\":\"https:\/\/swapi.dev\/api\/planets\/1\/\",\"films\":[\"https:\/\/swapi.dev\/api\/films\/1\/\",\"https:\/\/swapi.dev\/api\/films\/5\/\",\"https:\/\/swapi.dev\/api\/films\/6\/\"],\"species\":[],\"vehicles\":[],\"starships\":[],\"created\":\"2014-12-10T15:52:14.024000Z\",\"edited\":\"2014-12-20T21:17:50.317000Z\",\"url\":\"https:\/\/swapi.dev\/api\/people\/6\/\"}\n\n"},{"result":{"nanos":13600,"millis":0.0136,"status":"passed"},"step":{"line":15,"prefix":"Then","index":2,"text":"status 200"}}],"line":22,"description":"","durationMillis":807.5909,"failed":false,"executorName":"main","name":"Make a query to validate the response to all","startTime":1717126061646,"refId":"[2.4:22]","endTime":1717126062460,"exampleData":{"id":"6"},"exampleIndex":3},{"sectionIndex":1,"stepResults":[{"result":{"nanos":127000,"millis":0.127,"status":"passed"},"step":{"background":true,"line":4,"prefix":"*","index":0,"text":"url urlBase"}},{"result":{"nanos":383100,"millis":0.3831,"status":"passed"},"step":{"line":13,"prefix":"Given","index":0,"text":"path '\/people\/82'"}},{"result":{"nanos":809412800,"millis":809.4128,"status":"passed"},"step":{"line":14,"prefix":"When","index":1,"text":"method get"},"stepLog":"22:27:42.471 request:\n1 > GET https:\/\/swapi.dev\/api\/people\/82\n1 > Host: swapi.dev\n1 > Connection: Keep-Alive\n1 > User-Agent: Apache-HttpClient\/4.5.13 (Java\/1.8.0_202)\n1 > Accept-Encoding: gzip,deflate\n\n\n22:27:43.271 response time in milliseconds: 800\n1 < 200\n1 < Server: nginx\/1.16.1\n1 < Date: Fri, 31 May 2024 03:27:43 GMT\n1 < Content-Type: application\/json\n1 < Transfer-Encoding: chunked\n1 < Connection: keep-alive\n1 < Vary: Accept, Cookie\n1 < X-Frame-Options: SAMEORIGIN\n1 < ETag: \"7bcdb10fc4f1a925fc77562f200399b7\"\n1 < Allow: GET, HEAD, OPTIONS\n1 < Strict-Transport-Security: max-age=15768000\n{\"name\":\"Sly Moore\",\"height\":\"178\",\"mass\":\"48\",\"hair_color\":\"none\",\"skin_color\":\"pale\",\"eye_color\":\"white\",\"birth_year\":\"unknown\",\"gender\":\"female\",\"homeworld\":\"https:\/\/swapi.dev\/api\/planets\/60\/\",\"films\":[\"https:\/\/swapi.dev\/api\/films\/5\/\",\"https:\/\/swapi.dev\/api\/films\/6\/\"],\"species\":[],\"vehicles\":[],\"starships\":[],\"created\":\"2014-12-20T20:18:37.619000Z\",\"edited\":\"2014-12-20T21:17:50.496000Z\",\"url\":\"https:\/\/swapi.dev\/api\/people\/82\/\"}\n\n"},{"result":{"nanos":12400,"millis":0.0124,"status":"passed"},"step":{"line":15,"prefix":"Then","index":2,"text":"status 200"}}],"line":23,"description":"","durationMillis":809.9353,"failed":false,"executorName":"main","name":"Make a query to validate the response to all","startTime":1717126062468,"refId":"[2.5:23]","endTime":1717126063271,"exampleData":{"id":"82"},"exampleIndex":4}],"callDepth":0,"name":"Star Wars Api","description":"","resultDate":"2024-05-30 10:27:43 PM","durationMillis":7233.5119,"passedCount":6}